<svg width="40" height="40" viewBox="0 0 40 40" fill="none" xmlns="http://www.w3.org/2000/svg">
<circle cx="20" cy="20" r="19.5" stroke="#4F4F4F"/>
<path d="M24.119 12.2907C22.3455 12.2907 20.83 13.5548 19.9974 14.4264C19.1648 13.5548 17.6527 12.2907 15.88 12.2907C12.8246 12.2907 10.6914 14.4204 10.6914 17.4691C10.6914 20.8284 13.3407 22.9996 15.9037 25.0998C17.1137 26.0923 18.366 27.1178 19.3264 28.2551C19.488 28.4455 19.7249 28.5555 19.9737 28.5555H20.0228C20.2724 28.5555 20.5085 28.4446 20.6693 28.2551C21.6313 27.1178 22.8828 26.0915 24.0936 25.0998C26.6558 23.0005 29.3068 20.8292 29.3068 17.4691C29.3068 14.4204 27.1736 12.2907 24.119 12.2907Z" fill="#4F4F4F"/>
</svg>
