<svg width="67" height="40" viewBox="0 0 67 40" fill="none" xmlns="http://www.w3.org/2000/svg">
<path d="M50.4995 29.3697L44.4612 27.2087C43.0748 26.7161 42.4948 27.0259 41.9545 28.46C41.3228 30.1563 40.2463 31.0064 38.1885 31.0025C35.0541 31.0025 34.2953 29.7869 34.3033 27.0537V19.8038C34.3033 17.0746 35.07 15.8669 38.2044 15.8749C40.3059 15.8749 41.1997 16.5939 41.9148 18.4332C42.4471 19.8673 42.9834 20.0898 44.4175 19.6885L50.5114 17.5553C51.8979 17.0666 52.2594 16.3953 51.7668 15.0525C49.856 9.80872 45.3828 6.89284 38.2242 6.87695C33.4015 6.87695 29.6871 8.24352 27.2559 10.7264V9.45119C27.2559 7.95353 26.7554 7.4649 25.2696 7.4649L1.98629 7.4649C0.492601 7.4649 0 7.96544 0 9.45119L0 14.544C0 16.0377 0.500546 16.5303 1.98629 16.5303H8.38613L8.38613 37.6367C8.38613 39.1304 8.88668 39.623 10.3724 39.623H16.8994C18.3931 39.623 18.8857 39.1224 18.8857 37.6367V16.5303H24.2606C24.0345 17.6188 23.9226 18.7278 23.9269 19.8395V26.9902C23.9269 34.9989 29.0476 39.9805 38.1766 40.0004C45.3272 40.0004 49.8202 37.1123 51.7588 31.9241C52.2554 30.5377 51.886 29.8663 50.4995 29.3697Z" fill="#F8961C"/>
<path d="M64.0901 0L44.0127 0C42.4308 0 41.1484 1.28236 41.1484 2.86423V10.8809C41.1484 12.4628 42.4308 13.7451 44.0127 13.7451L64.0901 13.7451C65.672 13.7451 66.9544 12.4628 66.9544 10.8809V2.86423C66.9544 1.28236 65.672 0 64.0901 0Z" fill="#75C043"/>
<path d="M47.6115 8.50529C47.6437 8.95213 47.5124 9.39544 47.2421 9.75268C46.9123 10.0184 46.5016 10.1633 46.0781 10.1633C45.6546 10.1633 45.2439 10.0184 44.9142 9.75268C44.6509 9.42259 44.5206 9.00601 44.5487 8.58474V5.40667C44.5478 5.17737 44.5772 4.94896 44.6361 4.72736C44.689 4.53416 44.7794 4.35327 44.9022 4.19503C45.0315 4.04366 45.1949 3.9252 45.379 3.84941C45.6032 3.76323 45.842 3.72141 46.0821 3.72626C46.3294 3.71986 46.5758 3.75891 46.8091 3.84147C46.9928 3.9081 47.1558 4.0218 47.2818 4.17119C47.4046 4.32636 47.4914 4.50681 47.5361 4.69955C47.5895 4.92868 47.6148 5.16347 47.6115 5.39872V8.50529ZM46.6303 5.32722C46.6336 5.16279 46.5953 5.00019 46.5191 4.85448C46.474 4.78222 46.4095 4.72413 46.3329 4.68689C46.2563 4.64965 46.1707 4.63476 46.0861 4.64393C45.986 4.63987 45.8872 4.66769 45.804 4.72338C45.7343 4.77304 45.6771 4.83835 45.6372 4.91407C45.5958 4.99375 45.5676 5.07961 45.5537 5.16831C45.5385 5.25355 45.5305 5.33994 45.5299 5.42653V8.6046C45.5282 8.76031 45.5709 8.91328 45.6531 9.04556C45.7045 9.10868 45.7693 9.15955 45.8428 9.19449C45.9163 9.22944 45.9967 9.24757 46.0781 9.24757C46.1595 9.24757 46.2399 9.22944 46.3134 9.19449C46.387 9.15955 46.4518 9.10868 46.5032 9.04556C46.5913 8.89522 46.6353 8.72315 46.6303 8.54899V5.32722Z" fill="white"/>
<path d="M49.4744 6.44326V10.1219H48.4932V3.81738H49.3711L50.1378 5.70039L50.3166 6.16121C50.3762 6.31217 50.4437 6.4671 50.5073 6.626L50.8251 7.496H50.8727V3.81738H51.8341V10.1417H50.976L50.2133 8.27065C50.0941 7.96079 49.9749 7.65887 49.8558 7.36093L49.5101 6.46313L49.4744 6.44326Z" fill="white"/>
<path d="M56.88 10.1218L56.6337 8.80287H55.4697C55.43 9.02136 55.3863 9.23985 55.3466 9.46231C55.3068 9.68478 55.2711 9.90327 55.2353 10.1218H54.2422C54.4567 9.06241 54.6686 8.00305 54.8778 6.94369C55.087 5.88434 55.2989 4.82498 55.5134 3.76562H56.6059L57.885 10.09L56.88 10.1218ZM56.0259 5.25932L55.8352 6.56233C55.7677 6.99534 55.6962 7.43629 55.6167 7.8852H56.4788L56.0815 5.25932H56.0259Z" fill="white"/>
<path d="M58.4609 10.1219V3.81738H59.4422V10.1417L58.4609 10.1219Z" fill="white"/>
<path d="M61.8572 3.81742C62.0746 3.80669 62.292 3.83947 62.4967 3.91382C62.7013 3.98817 62.8891 4.10261 63.0489 4.25043C63.2107 4.44379 63.3326 4.66725 63.4076 4.90793C63.4825 5.1486 63.5092 5.40174 63.4859 5.65275C63.4963 5.99838 63.4383 6.34266 63.3151 6.66576C63.1993 6.94501 62.9901 7.17533 62.7232 7.31726L63.6567 10.1418H62.6596L61.8413 7.52384H61.3924V10.1418H60.4111V3.81742H61.8572ZM61.3924 4.71522V6.57042H61.7896C61.8943 6.57836 61.9995 6.56246 62.0972 6.52393C62.1949 6.4854 62.2826 6.42524 62.3537 6.34795C62.49 6.13561 62.5528 5.88439 62.5325 5.63289C62.5482 5.39486 62.4869 5.1581 62.3577 4.95755C62.2871 4.87198 62.1966 4.80511 62.094 4.76285C61.9915 4.72059 61.8801 4.70423 61.7698 4.71522H61.3924Z" fill="white"/>
</svg>
