<svg width="68" height="69" viewBox="0 0 68 69" fill="none" xmlns="http://www.w3.org/2000/svg">
<path d="M26.8382 8.02448C30.3806 7.87203 33.9184 8.41879 37.2495 9.63356C40.5806 10.8483 43.6398 12.7073 46.2525 15.1044C48.8652 17.5014 50.9801 20.3896 52.4766 23.604C53.9731 26.8185 54.8218 30.2961 54.9742 33.8386C55.1267 37.381 54.5799 40.9187 53.3651 44.2498C52.1504 47.5809 50.2914 50.6402 47.8943 53.2528C45.4973 55.8655 42.6091 57.9804 39.3947 59.4769C36.1802 60.9734 32.7026 61.8221 29.1601 61.9745" stroke="#F8961C" stroke-width="2"/>
</svg>
