<svg width="32" height="32" viewBox="0 0 32 32" fill="none" xmlns="http://www.w3.org/2000/svg">
<rect width="32" height="32" rx="4" fill="#F8961C"/>
<g clip-path="url(#clip0)">
<path d="M26.0003 6L13.3503 18.65L26.0003 6Z" fill="white"/>
<path d="M22.0794 7.37223C23.661 6.81865 25.1813 8.339 24.6278 9.92064L19.6165 24.2385C19.0181 25.9482 16.6368 26.0454 15.9012 24.3901L13.6624 19.3529C13.4613 18.9005 13.0995 18.5387 12.6471 18.3376L7.60988 16.0988C5.95462 15.3632 6.05177 12.9819 7.76145 12.3835L22.0794 7.37223Z" fill="white"/>
</g>
<defs>
<clipPath id="clip0">
<rect width="23" height="23" fill="white" transform="translate(4 5)"/>
</clipPath>
</defs>
</svg>
